run,repetition,module,name,count,sumweights,mean,stddev,min,max,rowtype,data...
General-19-20210426-09:32:25-3375,0,usecase1.FiveGNode1.eth[0].mac,eMacDelay:histogram,39,,0.030386486,0.011401754250992,0.011386486,0.049386486,bins,-Inf,0.001,0.002,0.003,0.004,0.005,0.006,0.007,0.008,0.009,0.01,0.011,0.012,0.013,0.014,0.015,0.016,0.017,0.018,0.019,0.02,0.021,0.022,0.023,0.024,0.025,0.026,0.027,0.028,0.029,0.03,0.031,0.032,0.033,0.034,0.035,0.036,0.037,0.038,0.039,0.04,0.041,0.042,0.043,0.044,0.045,0.046,0.047,0.048,0.049,0.05,0.051,0.052,0.053,0.054,0.055,0.056,0.057,0.058,0.059
General-19-20210426-09:32:25-3375,0,usecase1.FiveGNode1.eth[0].mac,eMacDelay:histogram,,,,,,,,counters,0,0,0,0,0,0,0,0,0,0,0,1,1,1,1,1,1,1,1,1,1,1,1,1,1,1,1,1,1,1,1,1,1,1,1,1,1,1,1,1,1,1,1,1,1,1,1,1,1,1,0,0,0,0,0,0,0,0,0,0
General-19-20210426-09:32:25-3375,0,usecase1.FiveGNode1.eth[1].mac,eMacDelay:histogram,49,,0.025264406,0.014288690166235,0.001264406,0.049264406,bins,-Inf,0,0.001,0.002,0.003,0.004,0.005,0.006,0.007,0.008,0.009,0.01,0.011,0.012,0.013,0.014,0.015,0.016,0.017,0.018,0.019,0.02,0.021,0.022,0.023,0.024,0.025,0.026,0.027,0.028,0.029,0.03,0.031,0.032,0.033,0.034,0.035,0.036,0.037,0.038,0.039,0.04,0.041,0.042,0.043,0.044,0.045,0.046,0.047,0.048,0.049,0.05,0.051,0.052,0.053,0.054,0.055,0.056,0.057,0.058,0.059,0.06,0.061,0.062
General-19-20210426-09:32:25-3375,0,usecase1.FiveGNode1.eth[1].mac,eMacDelay:histogram,,,,,,,,counters,0,0,1,1,1,1,1,1,1,1,1,1,1,1,1,1,1,1,1,1,1,1,1,1,1,1,1,1,1,1,1,1,1,1,1,1,1,1,1,1,1,1,1,1,1,1,1,1,1,1,1,0,0,0,0,0,0,0,0,0,0,0,0,0
General-19-20210426-09:32:25-3375,0,usecase1.FiveGNode2.eth[0].mac,eMacDelay:histogram,39,,0.030386486,0.011401754250992,0.011386486,0.049386486,bins,-Inf,0.001,0.002,0.003,0.004,0.005,0.006,0.007,0.008,0.009,0.01,0.011,0.012,0.013,0.014,0.015,0.016,0.017,0.018,0.019,0.02,0.021,0.022,0.023,0.024,0.025,0.026,0.027,0.028,0.029,0.03,0.031,0.032,0.033,0.034,0.035,0.036,0.037,0.038,0.039,0.04,0.041,0.042,0.043,0.044,0.045,0.046,0.047,0.048,0.049,0.05,0.051,0.052,0.053,0.054,0.055,0.056,0.057,0.058,0.059
General-19-20210426-09:32:25-3375,0,usecase1.FiveGNode2.eth[0].mac,eMacDelay:histogram,,,,,,,,counters,0,0,0,0,0,0,0,0,0,0,0,1,1,1,1,1,1,1,1,1,1,1,1,1,1,1,1,1,1,1,1,1,1,1,1,1,1,1,1,1,1,1,1,1,1,1,1,1,1,1,0,0,0,0,0,0,0,0,0,0
General-19-20210426-09:32:25-3375,0,usecase1.FiveGNode2.eth[1].mac,eMacDelay:histogram,49,,0.025264406,0.014288690166235,0.001264406,0.049264406,bins,-Inf,0,0.001,0.002,0.003,0.004,0.005,0.006,0.007,0.008,0.009,0.01,0.011,0.012,0.013,0.014,0.015,0.016,0.017,0.018,0.019,0.02,0.021,0.022,0.023,0.024,0.025,0.026,0.027,0.028,0.029,0.03,0.031,0.032,0.033,0.034,0.035,0.036,0.037,0.038,0.039,0.04,0.041,0.042,0.043,0.044,0.045,0.046,0.047,0.048,0.049,0.05,0.051,0.052,0.053,0.054,0.055,0.056,0.057,0.058,0.059,0.06,0.061,0.062
General-19-20210426-09:32:25-3375,0,usecase1.FiveGNode2.eth[1].mac,eMacDelay:histogram,,,,,,,,counters,0,0,1,1,1,1,1,1,1,1,1,1,1,1,1,1,1,1,1,1,1,1,1,1,1,1,1,1,1,1,1,1,1,1,1,1,1,1,1,1,1,1,1,1,1,1,1,1,1,1,1,0,0,0,0,0,0,0,0,0,0,0,0,0
General-19-20210426-09:32:25-3375,0,usecase1.bridge1.eth[0].mac,eMacDelay:histogram,49,,0.025142203,0.014288690166235,0.001142203,0.049142203,bins,-Inf,0,0.001,0.002,0.003,0.004,0.005,0.006,0.007,0.008,0.009,0.01,0.011,0.012,0.013,0.014,0.015,0.016,0.017,0.018,0.019,0.02,0.021,0.022,0.023,0.024,0.025,0.026,0.027,0.028,0.029,0.03,0.031,0.032,0.033,0.034,0.035,0.036,0.037,0.038,0.039,0.04,0.041,0.042,0.043,0.044,0.045,0.046,0.047,0.048,0.049,0.05,0.051,0.052,0.053,0.054,0.055,0.056,0.057,0.058,0.059,0.06,0.061,0.062
General-19-20210426-09:32:25-3375,0,usecase1.bridge1.eth[0].mac,eMacDelay:histogram,,,,,,,,counters,0,0,1,1,1,1,1,1,1,1,1,1,1,1,1,1,1,1,1,1,1,1,1,1,1,1,1,1,1,1,1,1,1,1,1,1,1,1,1,1,1,1,1,1,1,1,1,1,1,1,1,0,0,0,0,0,0,0,0,0,0,0,0,0
General-19-20210426-09:32:25-3375,0,usecase1.bridge1.eth[1].mac,eMacDelay:histogram,49,,0.025142203,0.014288690166235,0.001142203,0.049142203,bins,-Inf,0,0.001,0.002,0.003,0.004,0.005,0.006,0.007,0.008,0.009,0.01,0.011,0.012,0.013,0.014,0.015,0.016,0.017,0.018,0.019,0.02,0.021,0.022,0.023,0.024,0.025,0.026,0.027,0.028,0.029,0.03,0.031,0.032,0.033,0.034,0.035,0.036,0.037,0.038,0.039,0.04,0.041,0.042,0.043,0.044,0.045,0.046,0.047,0.048,0.049,0.05,0.051,0.052,0.053,0.054,0.055,0.056,0.057,0.058,0.059,0.06,0.061,0.062
General-19-20210426-09:32:25-3375,0,usecase1.bridge1.eth[1].mac,eMacDelay:histogram,,,,,,,,counters,0,0,1,1,1,1,1,1,1,1,1,1,1,1,1,1,1,1,1,1,1,1,1,1,1,1,1,1,1,1,1,1,1,1,1,1,1,1,1,1,1,1,1,1,1,1,1,1,1,1,1,0,0,0,0,0,0,0,0,0,0,0,0,0
General-19-20210426-09:32:25-3375,0,usecase1.bridge1.eth[2].mac,eMacDelay:histogram,0,,NaN,NaN,NaN,NaN,bins,-Inf,0,1
General-19-20210426-09:32:25-3375,0,usecase1.bridge1.eth[2].mac,eMacDelay:histogram,,,,,,,,counters,0,0,0
General-19-20210426-09:32:25-3375,0,usecase1.bridge1.eth[3].mac,eMacDelay:histogram,39,,0.030528689,0.011401754250991,0.011528689,0.049528689,bins,-Inf,0.002,0.003,0.004,0.005,0.006,0.007,0.008,0.009,0.01,0.011,0.012,0.013,0.014,0.015,0.016,0.017,0.018,0.019,0.02,0.021,0.022,0.023,0.024,0.025,0.026,0.027,0.028,0.029,0.03,0.031,0.032,0.033,0.034,0.035,0.036,0.037,0.038,0.039,0.04,0.041,0.042,0.043,0.044,0.045,0.046,0.047,0.048,0.049,0.05,0.051,0.052,0.053,0.054,0.055,0.056,0.057,0.058,0.059,0.06
General-19-20210426-09:32:25-3375,0,usecase1.bridge1.eth[3].mac,eMacDelay:histogram,,,,,,,,counters,0,0,0,0,0,0,0,0,0,0,1,1,1,1,1,1,1,1,1,1,1,1,1,1,1,1,1,1,1,1,1,1,1,1,1,1,1,1,1,1,1,1,1,1,1,1,1,1,1,0,0,0,0,0,0,0,0,0,0,0
General-19-20210426-09:32:25-3375,0,usecase1.bridge2.eth[0].mac,eMacDelay:histogram,39,,0.030528689,0.011401754250991,0.011528689,0.049528689,bins,-Inf,0.002,0.003,0.004,0.005,0.006,0.007,0.008,0.009,0.01,0.011,0.012,0.013,0.014,0.015,0.016,0.017,0.018,0.019,0.02,0.021,0.022,0.023,0.024,0.025,0.026,0.027,0.028,0.029,0.03,0.031,0.032,0.033,0.034,0.035,0.036,0.037,0.038,0.039,0.04,0.041,0.042,0.043,0.044,0.045,0.046,0.047,0.048,0.049,0.05,0.051,0.052,0.053,0.054,0.055,0.056,0.057,0.058,0.059,0.06
General-19-20210426-09:32:25-3375,0,usecase1.bridge2.eth[0].mac,eMacDelay:histogram,,,,,,,,counters,0,0,0,0,0,0,0,0,0,0,1,1,1,1,1,1,1,1,1,1,1,1,1,1,1,1,1,1,1,1,1,1,1,1,1,1,1,1,1,1,1,1,1,1,1,1,1,1,1,0,0,0,0,0,0,0,0,0,0,0
General-19-20210426-09:32:25-3375,0,usecase1.bridge2.eth[1].mac,eMacDelay:histogram,49,,0.025142203,0.014288690166235,0.001142203,0.049142203,bins,-Inf,0,0.001,0.002,0.003,0.004,0.005,0.006,0.007,0.008,0.009,0.01,0.011,0.012,0.013,0.014,0.015,0.016,0.017,0.018,0.019,0.02,0.021,0.022,0.023,0.024,0.025,0.026,0.027,0.028,0.029,0.03,0.031,0.032,0.033,0.034,0.035,0.036,0.037,0.038,0.039,0.04,0.041,0.042,0.043,0.044,0.045,0.046,0.047,0.048,0.049,0.05,0.051,0.052,0.053,0.054,0.055,0.056,0.057,0.058,0.059,0.06,0.061,0.062
General-19-20210426-09:32:25-3375,0,usecase1.bridge2.eth[1].mac,eMacDelay:histogram,,,,,,,,counters,0,0,1,1,1,1,1,1,1,1,1,1,1,1,1,1,1,1,1,1,1,1,1,1,1,1,1,1,1,1,1,1,1,1,1,1,1,1,1,1,1,1,1,1,1,1,1,1,1,1,1,0,0,0,0,0,0,0,0,0,0,0,0,0
